Mini-Project 2
…
## The following objects are masked from 'package:stats':
## 
##     filter, lag

## The following objects are masked from 'package:base':
## 
##     intersect, setdiff, setequal, union

library(ggplot2)

tbl_df(house_elections)

## # A tibble: 2,178 x 10
##       fec_id state district incumbent   candidate_name party primary_votes
##        <chr> <chr>    <chr>     <chr>            <chr> <chr>         <int>
##  1 B2CA08156    CA       08     FALSE Mitzelfelt, Brad     R          8801
##  2 H0AK00097    AK       00     FALSE     Cox, John R.     R         11179
##  3 H0AL01030    AL       01     FALSE  Gounares, Peter     R          3854
##  4 H0AL02087    AL       02      TRUE     Roby, Martha     R             0
##  5 H0AL05163    AL       05      TRUE       Brooks, Mo     R         65163
##  6 H0AL07086    AL       07      TRUE Sewell, Terri A.     D             0
##  7 H0AL07177    AL       07     FALSE Chamberlain, Don     R         11537
##  8 H0AR01083    AR       01      TRUE  Crawford, Rick      R             0
##  9 H0AR02107    AR       02      TRUE    Griffin, Tim      R             0
## 10 H0AR03055    AR       03      TRUE    Womack, Steve     R             0
## # ... with 2,168 more rows, and 3 more variables: runoff_votes <int>,
## #   general_votes <int>, ge_winner <chr>
…
total <- lapply(parties, total_candidates)

names(total) <- c("total_dem", "total_rep")
list2env(total, envir = .GlobalEnv)

## <environment: R_GlobalEnv>

tbl_df(total_dem)

## # A tibble: 54 x 2
##    state     N
##    <chr> <int>
##  1    AK     5
##  2    AL     8
##  3    AR     8
##  4    AS     2
##  5    AZ    18
##  6    CA   105
##  7    CO     6
##  8    CT     4
##  9    DC     2
## 10    DE     1
## # ... with 44 more rows

tbl_df(total_rep)

## # A tibble: 53 x 2
##    state     N
##    <chr> <int>
##  1    AK     3
##  2    AL    15
##  3    AR     6
##  4    AZ    24
##  5    CA    97
##  6    CO    10
##  7    CT    17
##  8    DE     2
##  9    FL    53
## 10    GA    28
## # ... with 43 more rows
…
##   SUM
## 1 925

total3 <- function(party_arg) {
  house_elections %>%
  filter(party == party_arg) %>%
  group_by(state) %>%
  select(state, party)
}

lapply(parties, total3)

## [[1]]
## # A tibble: 794 x 2
## # Groups:   state [54]
##    state party
##    <chr> <chr>
##  1    AL     D
##  2    AS     D
##  3    AZ     D
##  4    CA     D
##  5    CA     D
##  6    CA     D
##  7    CA     D
##  8    CA     D
##  9    CA     D
## 10    CA     D
## # ... with 784 more rows
## 
## [[2]]
## # A tibble: 925 x 2
## # Groups:   state [53]
##    state party
##    <chr> <chr>
##  1    CA     R
##  2    AK     R
##  3    AL     R
##  4    AL     R
##  5    AL     R
##  6    AL     R
##  7    AR     R
##  8    AR     R
##  9    AR     R
## 10    AR     R
## # ... with 915 more rows
…
winners_incumbs3 <- function(party_arg) {
  house_elections %>%
  filter(incumbent == "TRUE" &  party == party_arg & ge_winner == "W") %>%
  group_by(state) %>%
  select(state, incumbent, ge_winner, party)
}

lapply(parties, winners_incumbs3)

## [[1]]
## # A tibble: 152 x 4
## # Groups:   state [41]
##    state incumbent ge_winner party
##    <chr>     <chr>     <chr> <chr>
##  1    AL      TRUE         W     D
##  2    AS      TRUE         W     D
##  3    CA      TRUE         W     D
##  4    CA      TRUE         W     D
##  5    CA      TRUE         W     D
##  6    CA      TRUE         W     D
##  7    CA      TRUE         W     D
##  8    CA      TRUE         W     D
##  9    DC      TRUE         W     D
## 10    DE      TRUE         W     D
## # ... with 142 more rows
## 
## [[2]]
## # A tibble: 199 x 4
## # Groups:   state [40]
##    state incumbent ge_winner party
##    <chr>     <chr>     <chr> <chr>
##  1    AL      TRUE         W     R
##  2    AL      TRUE         W     R
##  3    AR      TRUE         W     R
##  4    AR      TRUE         W     R
##  5    AR      TRUE         W     R
##  6    AZ      TRUE         W     R
##  7    CA      TRUE         W     R
##  8    CA      TRUE         W     R
##  9    CO      TRUE         W     R
## 10    FL      TRUE         W     R
## # ... with 189 more rows
…
